[{"result":{"status":{"code":200,"data":"success","executionTime":"0.68","requestTime":"2023-07-05 20:41:52","requestId":"75775e18af1af65a0807fb8b759099c1","endpoint":"item_search","apiVersion":"3.2.4","functionsVersion":"3.0.8","la":"0.00","pmu":725240,"mu":724920},"settings":{"q":"Galaxy S10 Pantalla","catId":"","brandId":"","loc":"","attr":"","sort":"salesDesc","page":"1","startPrice":"","endPrice":"","region":"CL","locale":"es_ES","currency":"CLP"},"base":{"hasNextPage":true,"totalResults":5911,"pageSize":20,"q":"Galaxy S10 Pantalla","sortValues":["default","salesDesc","priceAsc","priceDesc","latest"],"locationList":[{"name":"US"},{"name":"TR"},{"name":"CN"}],"attributeList":[],"categoryList":{"list":[{"name":"Teléfonos y telecomunicaciones","id":204000143,"count":9650},{"name":"Productos electrónicos","id":204000021,"count":51},{"name":"Automóviles y motocicletas","id":204000016,"count":27},{"name":"Herramientas","id":204000449,"count":17},{"name":"Ordenadores y oficina","id":204000007,"count":8},{"name":"Mejoras para el hogar","id":204000008,"count":8},{"name":"Maletas y bolsas","id":204000414,"count":6},{"name":"Luces e iluminación","id":204000017,"count":4},{"name":"Novedad y uso especial","id":204004449,"count":1},{"name":"Componentes y suministros electrónicos","id":204000148,"count":1}]}},"resultList":[{"item":{"itemId":1005005104689502,"title":"Película de hidrogel para Samsung Galaxy, protectores de pantalla FE para Samsung Galaxy S20, S22, S21 Ultra, S10, S9, S8 Plus, Note 20, 10, 9, 8 Plus, S23U, 4 unidades","sales":37801,"image":"//ae01.alicdn.com/kf/S7bc0c2c7c40e4728a13d9c86706a7e64q.jpg","sku":{"def":{"price":null,"promotionPrice":1673,"prices":{"pc":1673,"app":1673}}},"averageStarRate":4.6},"delivery":{"freeShipping":true,"shippingFee":0,"shippingDisplay":"Envío Gratis"}},{"item":{"itemId":1005002697304871,"title":"Protector de pantalla de vidrio templado para Samsung Galaxy S10, S20 Plus, Ultra 5G, S10E, Note 20, 10, Ultra Plus","sales":5629,"image":"//ae01.alicdn.com/kf/S27b0ae8af2c74fae952d89c6f21e6c86G.jpg","sku":{"def":{"price":null,"promotionPrice":576,"prices":{"pc":576,"app":576}}},"averageStarRate":4.1},"delivery":{"freeShipping":true,"shippingFee":0,"shippingDisplay":"Envío Gratis"}},{"item":{"itemId":1005005309332248,"title":"Película de hidrogel para Samsung Galaxy S9 S10 Plus S10E S20 FE S21 S22 S23 Ultra Note 9 10 20, Protector de pantalla de silicona suave, 3 uds.","sales":342,"image":"//ae01.alicdn.com/kf/S10841ae988e34151a1350227bfed77c11.jpg","sku":{"def":{"price":null,"promotionPrice":2073,"prices":{"pc":2073,"app":2073}}},"averageStarRate":4.3},"delivery":{"freeShipping":true,"shippingFee":0,"shippingDisplay":"Envío Gratis"}},{"item":{"itemId":1005005388713511,"title":"Protector de pantalla de cobertura completa para Samsung Galaxy, Protector de pantalla de hidrogel para Samsung Galaxy S21 Plus S22 S23 Ultra FE S20 S10, Note 20 9 10, 4 unidades","sales":3392,"image":"//ae01.alicdn.com/kf/Se6f1066117354e0a85a811e104cf1ec1z.jpg","sku":{"def":{"price":null,"promotionPrice":1900,"prices":{"pc":1900,"app":1900}}},"averageStarRate":4.6},"delivery":{"freeShipping":true,"shippingFee":0,"shippingDisplay":"Envío Gratis"}},{"item":{"itemId":1005005135029143,"title":"Película de hidrogel para móvil, protectores de pantalla para Samsung S21, S23, S22 Ultra, S8, S9, S10 Plus, S21FE, Galaxy Note 20, Ultra 10, 9, 8 Plus, S10E, 5 unidades","sales":6686,"image":"//ae01.alicdn.com/kf/S4167a651eed94c3abeec22c42f195cefB.jpg","sku":{"def":{"price":null,"promotionPrice":1999,"prices":{"pc":1999,"app":1999}}},"averageStarRate":4.7},"delivery":{"freeShipping":true,"shippingFee":0,"shippingDisplay":"Envío Gratis"}},{"item":{"itemId":1005004918238533,"title":"Vidrio Templado 9D para Samsung Galaxy S21 FE S22 S23 Plus S20 S10E S10 Lite M21 M31 M32 M51 M52 J4 Plus J6 J7 J8, Protector de pantalla","sales":4784,"image":"//ae01.alicdn.com/kf/Sb36256efa1544d74b355b130cb6bf548x.jpg","sku":{"def":{"price":null,"promotionPrice":2353,"prices":{"pc":2353,"app":2353}}},"averageStarRate":4.5},"delivery":{"freeShipping":true,"shippingFee":0,"shippingDisplay":"Envío Gratis"}},{"item":{"itemId":1005004411442559,"title":"Protector de pantalla de cobertura completa, película de hidrogel para Samsung Galaxy S23, S22, S21 FE, S20 Ultra, S10, S9 Plus, protección suave, no de vidrio, 2 uds.","sales":3165,"image":"//ae01.alicdn.com/kf/S8416fc9d3a2d4b4d886953fdf5f67480U.jpg","sku":{"def":{"price":null,"promotionPrice":1390,"prices":{"pc":1390,"app":1390}}},"averageStarRate":4.6},"delivery":{"freeShipping":true,"shippingFee":0,"shippingDisplay":"Envío Gratis"}},{"item":{"itemId":1005005246673203,"title":"Protector de pantalla Ultra para Samsung Galaxy, vidrio templado FE, S23, S22, S21, S20, S10, S9, S8 Plus, Note20 S, 23, 22, 21, Note 20, 10, 9, 8, 3 unidades","sales":3108,"image":"//ae01.alicdn.com/kf/See5e4831418c48e687956a29d5ca2444l.jpg","sku":{"def":{"price":null,"promotionPrice":1653,"prices":{"pc":1653,"app":1653}}},"averageStarRate":4},"delivery":{"freeShipping":true,"shippingFee":0,"shippingDisplay":"Envío Gratis"}},{"item":{"itemId":1005004309470662,"title":"Protector de pantalla de vidrio templado UV para Samsung Galaxy, Protector de pantalla para Samsung Galaxy S23 S22 S21 S20 S10 S9 S8 Note20 Note10 S 23 22 Ultra 21 Note 20 10 9 8 Plus, 4 Uds.","sales":4090,"image":"//ae01.alicdn.com/kf/A91a71d18c5d3487f8d543165e75786b2b.jpg","sku":{"def":{"price":null,"promotionPrice":3504,"prices":{"pc":3504,"app":3504}}},"averageStarRate":4.5},"delivery":{"freeShipping":false,"shippingFee":null,"shippingDisplay":""}},{"item":{"itemId":1005001905167745,"title":"Protector de pantalla para Samsung Galaxy Note 9, 10 Plus, 8, S8, S9 Edge, vidrio para Samsung Note 20 Ultra, S20, S10 Plus, S21","sales":750,"image":"//ae01.alicdn.com/kf/Sed78549df0b74b779627c73b9fa3e986h.jpg","sku":{"def":{"price":null,"promotionPrice":568,"prices":{"pc":568,"app":568}}},"averageStarRate":4.3},"delivery":{"freeShipping":false,"shippingFee":null,"shippingDisplay":""}},{"item":{"itemId":1005003295004583,"title":"Vidrio protector de pantalla para Samsung Galaxy S10 E S10e S 10e A30 A50 A10 A90 A40 M50 M30 M10 M20, vidrio templado Verre Tremp","sales":387,"image":"//ae01.alicdn.com/kf/S0bea5f806c9042809e328e024a7ad5877.jpg","sku":{"def":{"price":null,"promotionPrice":543,"prices":{"pc":543,"app":543}}},"averageStarRate":4.5},"delivery":{"freeShipping":true,"shippingFee":0,"shippingDisplay":"Envío Gratis"}},{"item":{"itemId":1005002714346628,"title":"Protector de pantalla curvado completo 20D para Samsung Galaxy S9, S10, S8 Plus, Note 8, 9, vidrio templado para Samsung s10, película 5G","sales":1108,"image":"//ae01.alicdn.com/kf/H3fc5e4020ac1495285c8fdc2cbaac273y.jpg","sku":{"def":{"price":null,"promotionPrice":543,"prices":{"pc":543,"app":543}}},"averageStarRate":4.3},"delivery":{"freeShipping":true,"shippingFee":0,"shippingDisplay":"Envío Gratis"}},{"item":{"itemId":1005005440082499,"title":"Protector de pantalla de cobertura completa, hidrogel para Samsung Galaxy S21 Plus, S22, S23 Ultra FE, S20, S10, Note 20, 9, 10","sales":3182,"image":"//ae01.alicdn.com/kf/Sa5c836af2b274aef8de6f01a9113e8fas.jpg","sku":{"def":{"price":null,"promotionPrice":1833,"prices":{"pc":1833,"app":1833}}},"averageStarRate":4.5},"delivery":{"freeShipping":false,"shippingFee":null,"shippingDisplay":""}},{"item":{"itemId":1005005215568955,"title":"Película de hidrogel 6 en 1 para Samsung S22 S21 S23 Ultra S8 S9 S10 Plus S20 FE, Protector de pantalla para Galaxy Note 20Ultra S10E, película de lente","sales":6808,"image":"//ae01.alicdn.com/kf/Sf4f6fc551c4b4f8f9e1c4f5691ada51b7.jpg","sku":{"def":{"price":null,"promotionPrice":1571,"prices":{"pc":1571,"app":1571}}},"averageStarRate":4.5},"delivery":{"freeShipping":true,"shippingFee":0,"shippingDisplay":"Envío Gratis"}},{"item":{"itemId":4001193307199,"title":"Protector de pantalla de vidrio templado para móvil, Protector de pantalla de seguridad blindado para Samsung A10 A 10 s 10 s 10A s10 cam Galaxy gaxaly","sales":243,"image":"//ae01.alicdn.com/kf/Hb7c47aeb75d84ec483f61606447741a0t.jpg","sku":{"def":{"price":null,"promotionPrice":1925,"prices":{"pc":1925,"app":1925}}},"averageStarRate":4.5},"delivery":{"freeShipping":true,"shippingFee":0,"shippingDisplay":"Envío Gratis"}},{"item":{"itemId":1005005653159357,"title":"Protector de pantalla de privacidad para Samsung Galaxy, película de hidrogel suave antimirones, S9, S10, S20, S21, S22, S23, Ultra Plus, Note 9, 10, 20, 2 unidades","sales":85,"image":"//ae01.alicdn.com/kf/S13e017c578c149cb93440e37e535ece61.jpg","sku":{"def":{"price":null,"promotionPrice":1415,"prices":{"pc":1415,"app":1415}}},"averageStarRate":5},"delivery":{"freeShipping":true,"shippingFee":0,"shippingDisplay":"Envío Gratis"}},{"item":{"itemId":1005005397296705,"title":"Vidrio templado para Samsung Galaxy S10 Plus, Protector de pantalla Ultra antiarañazos, S20, S21, S22, S23, Ultra Plus, Note 20, 4 Uds.","sales":349,"image":"//ae01.alicdn.com/kf/S91dfa89504dd42f689cf836a6d1c552ds.jpg","sku":{"def":{"price":null,"promotionPrice":1398,"prices":{"pc":1398,"app":1398}}},"averageStarRate":4.3},"delivery":{"freeShipping":true,"shippingFee":0,"shippingDisplay":"Envío Gratis"}},{"item":{"itemId":32992378103,"title":"Protector de pantalla de cubierta completa para Samsung Galaxy S10, S9, S8 PLUS, S10E, Note 9, 8, A8 PLUS, A7, 2018, película de TPU de silicona, pegatina de hidrogel","sales":88,"image":"//ae01.alicdn.com/kf/HTB11NByKCzqK1RjSZPcq6zTepXaX.jpg","sku":{"def":{"price":null,"promotionPrice":2912,"prices":{"pc":2912,"app":2912}}},"averageStarRate":4.5},"delivery":{"freeShipping":true,"shippingFee":0,"shippingDisplay":"Envío Gratis"}},{"item":{"itemId":1005005600327731,"title":"Protector de pantalla de Hidrogel, película protectora para Samsung Galaxy S10, S20, S21, S22, S23, Ultra Plus, FE, Note 20, 8, 9, 10, 4 unidades","sales":689,"image":"//ae01.alicdn.com/kf/S3a2b420b7990493d8294ed20887c2b01i.jpg","sku":{"def":{"price":null,"promotionPrice":1053,"prices":{"pc":1053,"app":1053}}},"averageStarRate":4.8},"delivery":{"freeShipping":true,"shippingFee":0,"shippingDisplay":"Envío Gratis"}},{"item":{"itemId":1005004802177375,"title":"Protector de pantalla de vidrio templado para Samsung Galaxy S10, S9, S8, S20, S21, S22, Ultra Plus, S10e, Note S, 21, 9, 8, 10 FE, Note 10, Note 20, Note 9","sales":321,"image":"//ae01.alicdn.com/kf/Sce074fad10ac4133bf9161a3ccb10d7bf.jpg","sku":{"def":{"price":null,"promotionPrice":1958,"prices":{"pc":1958,"app":1958}}},"averageStarRate":4.2},"delivery":{"freeShipping":true,"shippingFee":0,"shippingDisplay":"Envío Gratis"}}]}}]