[{"result":{"status":{"code":200,"data":"success","executionTime":"0.73","requestTime":"2023-07-08 01:38:39","requestId":"95e49aae8efeea01a58ceda24223ddd3","endpoint":"item_search","apiVersion":"3.2.4","functionsVersion":"3.0.8","la":"0.00","pmu":671336,"mu":671016},"settings":{"q":"ABC Pantalla","catId":"","brandId":"","loc":"","attr":"","sort":"salesDesc","page":"1","startPrice":"","endPrice":"","region":"CL","locale":"es_ES","currency":"CLP"},"base":{"hasNextPage":true,"totalResults":6263,"pageSize":20,"q":"ABC Pantalla","sortValues":["default","salesDesc","priceAsc","priceDesc","latest"],"locationList":[{"name":"US"},{"name":"TR"},{"name":"CN"}],"attributeList":[],"categoryList":{"list":[{"name":"Automóviles y motocicletas","id":204000016,"count":783},{"name":"Componentes y suministros electrónicos","id":204000148,"count":8},{"name":"Productos electrónicos","id":204000021,"count":5},{"name":"Seguridad y protección","id":204000015,"count":4},{"name":"Ropa de hombre","id":204000316,"count":4},{"name":"Ordenadores y oficina","id":204000007,"count":4},{"name":"Herramientas","id":204000449,"count":3},{"name":"Hogar y jardín","id":204000009,"count":2},{"name":"Mejoras para el hogar","id":204000008,"count":1},{"name":"Muebles","id":204000411,"count":1},{"name":"Teléfonos y telecomunicaciones","id":204000143,"count":1}]}},"resultList":[{"item":{"itemId":1005004782530377,"title":"Parabrisas tintado para Yamaha TDM 850 4TX 1996-2001, parabrisas Touring 96-01 TDM850 21,9 \", protector de viento transparente negro","sales":34,"image":"//ae01.alicdn.com/kf/S2a1fe2f58d8a4d3bbf7a092992d71222c.jpg","sku":{"def":{"price":null,"promotionPrice":22894,"prices":{"pc":22894,"app":22894}}},"averageStarRate":3.2},"delivery":{"freeShipping":false,"shippingFee":null,"shippingDisplay":""}},{"item":{"itemId":4000622238745,"title":"Radio con GPS para coche, reproductor con Android 12, pantalla de 10,25 pulgadas, Carplay, Bluetooth, sistema inteligente de navegación, para BMW X5/X6 E70 E71 CCC/CIC","sales":10,"image":"//ae01.alicdn.com/kf/S8a50a571f6b34fdcb7e298bd1bdd7cadh.jpg","sku":{"def":{"price":null,"promotionPrice":202406,"prices":{"pc":202406,"app":202406}}},"averageStarRate":4.3},"delivery":{"freeShipping":false,"shippingFee":null,"shippingDisplay":""}},{"item":{"itemId":1005005786573284,"title":"Interruptor de circuito de monitoreo MAX803SEXR SC70-3 17UA 5,5 V, pantalla de seda ABC, nuevo y Original","sales":0,"image":"//ae01.alicdn.com/kf/S4233a15d77674b66be6e208dae31ab6ai.jpg","sku":{"def":{"price":null,"promotionPrice":570,"prices":{"pc":570,"app":570}}},"averageStarRate":null},"delivery":{"freeShipping":false,"shippingFee":null,"shippingDisplay":""}},{"item":{"itemId":1005002046436487,"title":"Parabrisas delantero para motocicleta, protector de pantalla de viento de doble lámpara, 89, 90, ZXR250, Kawasaki ZXR 250, ZXR250R 1989, 1990","sales":4,"image":"//ae01.alicdn.com/kf/H936e422cb9414b73a00ac744318b3aadD.jpg","sku":{"def":{"price":null,"promotionPrice":23558,"prices":{"pc":23558,"app":23558}}},"averageStarRate":4},"delivery":{"freeShipping":false,"shippingFee":null,"shippingDisplay":""}},{"item":{"itemId":1005005192338955,"title":"Parabrisas para Suzuki GSXR1000R/GSXR1000, odómetro, visera, cubierta, protector de viento, Deflector de pantalla, 2017-2022","sales":8,"image":"//ae01.alicdn.com/kf/S641c4d58f5b24c10bf0e4286a356d5c2v.jpg","sku":{"def":{"price":null,"promotionPrice":14195,"prices":{"pc":14195,"app":14195}}},"averageStarRate":4},"delivery":{"freeShipping":false,"shippingFee":null,"shippingDisplay":""}},{"item":{"itemId":1005004781883774,"title":"GSX-R1100 parabrisas para Suzuki Gsxr1100 1995-1998 Visor Viser Deflector GSXR 1100 95-98 viento gira protector de pantalla","sales":2,"image":"//ae01.alicdn.com/kf/S3a069f1805c14de594d8c116ce2533754.jpg","sku":{"def":{"price":null,"promotionPrice":29267,"prices":{"pc":29267,"app":29267}}},"averageStarRate":3.3},"delivery":{"freeShipping":false,"shippingFee":null,"shippingDisplay":""}},{"item":{"itemId":1005004069275733,"title":"Parabrisas con visera para KAWASAKI GPZ750, odómetro para modelos 1984 a 1988, GPZ1100 83-88, GPZ 1100, 750, Turbo Wind Touring","sales":2,"image":"//ae01.alicdn.com/kf/S055d2da91990457d89b3811e5ef85272X.jpg","sku":{"def":{"price":null,"promotionPrice":19354,"prices":{"pc":19354,"app":19354}}},"averageStarRate":null},"delivery":{"freeShipping":false,"shippingFee":null,"shippingDisplay":""}},{"item":{"itemId":1005005253486875,"title":"Deflectores de viento de 21,9 pulgadas para Yamaha, parabrisas Touring Shield, 1996 CM, 2001-850, TDM850, TDM 55,5, 4TX","sales":3,"image":"//ae01.alicdn.com/kf/S4ded4e9be67143f0b6bc7cd1fc7ca183w.jpg","sku":{"def":{"price":null,"promotionPrice":15515,"prices":{"pc":15515,"app":15515}}},"averageStarRate":3},"delivery":{"freeShipping":false,"shippingFee":null,"shippingDisplay":""}},{"item":{"itemId":1005004925637088,"title":"Parabrisas elevado de 55,5 cm para Yamaha TDM 850 4TX 1996-2001, visera, visera, Deflector 96-01 TDM850, pantalla de viento Touring","sales":11,"image":"//ae01.alicdn.com/kf/S96fc5678bbe64f5085439a81b106defcr.jpg","sku":{"def":{"price":null,"promotionPrice":18380,"prices":{"pc":18380,"app":18380}}},"averageStarRate":4},"delivery":{"freeShipping":false,"shippingFee":null,"shippingDisplay":""}},{"item":{"itemId":1005004004995032,"title":"Deflector de parabrisas delantero de motocicleta para Honda VT250F VT 250F1982 1983 1984 VT250 F Wind Touring Screen ABC Plastic","sales":1,"image":"//ae01.alicdn.com/kf/S960fa3f5bc0d4d64923f53cba414a40d2.jpg","sku":{"def":{"price":null,"promotionPrice":29241,"prices":{"pc":29241,"app":29241}}},"averageStarRate":null},"delivery":{"freeShipping":false,"shippingFee":null,"shippingDisplay":""}},{"item":{"itemId":1005001511285554,"title":"FORZA-Parabrisas para motocicleta, Deflector de flujo de aire para Honda NSS 250, 250, 2000, 2001, NSS250, 00-03, 2003","sales":3,"image":"//ae01.alicdn.com/kf/Sff9a0a0fa2f24530a7200fe22515e2cbB.jpg","sku":{"def":{"price":null,"promotionPrice":12694,"prices":{"pc":12694,"app":12694}}},"averageStarRate":null},"delivery":{"freeShipping":false,"shippingFee":null,"shippingDisplay":""}},{"item":{"itemId":1005002847421669,"title":"Deflector de parabrisas para coche, accesorio para Honda VFR800FI / VFR 800FI / VFR 800 FI 1998 1999 2000 2001, 98, 99, 00, 01, VFR800","sales":14,"image":"//ae01.alicdn.com/kf/Hca9cfd3f71b6447eb7e6d91040290e42i.jpg","sku":{"def":{"price":null,"promotionPrice":12787,"prices":{"pc":12787,"app":12787}}},"averageStarRate":4.3},"delivery":{"freeShipping":false,"shippingFee":null,"shippingDisplay":""}},{"item":{"itemId":1005001500865394,"title":"Parabrisas NSS250 para motocicleta, Deflector de flujo de aire para Honda NSS 250, 2000, 2001, 2003, Forza 250, 00-03","sales":2,"image":"//ae01.alicdn.com/kf/Sfeab453010c54786816c2212081d8306H.jpg","sku":{"def":{"price":null,"promotionPrice":21742,"prices":{"pc":21742,"app":21742}}},"averageStarRate":5},"delivery":{"freeShipping":false,"shippingFee":null,"shippingDisplay":""}},{"item":{"itemId":1005005226866940,"title":"Parabrisas deportivo Touring para Honda ST 1300 Pan, pantalla de flujo de aire de viento de altura estándar, Europeo ST1300, ST1300ABS, 03-12","sales":2,"image":"//ae01.alicdn.com/kf/S8b7505f696904b8ca47bc0b7a371b211t.jpg","sku":{"def":{"price":null,"promotionPrice":53356,"prices":{"pc":53356,"app":53356}}},"averageStarRate":4},"delivery":{"freeShipping":false,"shippingFee":null,"shippingDisplay":""}},{"item":{"itemId":1005004501509145,"title":"Ensamblaje de pantalla LCD A1706, reemplazo Compatible con MacBook Pro, Retina de 13,3 pulgadas, finales de 2016, MLH12LL/A, EMC3071, mediados de 2017","sales":14,"image":"//ae01.alicdn.com/kf/S6974a0f608244530a135fdf22cbf1bb69.jpg","sku":{"def":{"price":null,"promotionPrice":75642,"prices":{"pc":75642,"app":75642}}},"averageStarRate":5},"delivery":{"freeShipping":false,"shippingFee":null,"shippingDisplay":""}},{"item":{"itemId":1005002033894729,"title":"Parabrisas de vidrio delantero para motocicleta Yamaha, accesorios de protección contra el viento, deflectores, YSR50 YSR80, 1987-1992 YSR 80","sales":24,"image":"//ae01.alicdn.com/kf/S334535e5d7f64a6a8a9aa4be8f20516ad.jpg","sku":{"def":{"price":null,"promotionPrice":20680,"prices":{"pc":20680,"app":20680}}},"averageStarRate":null},"delivery":{"freeShipping":false,"shippingFee":null,"shippingDisplay":""}},{"item":{"itemId":1005001556471610,"title":"Parabrisas para motocicleta, Deflector de flujo de aire, pantalla de viento, 2MM, RG 250, 84-88, para Suzuki RG250, Gamma, Mk2-Mk3, 1984-1988","sales":1,"image":"//ae01.alicdn.com/kf/Sc1c0967f4ba44179a984934cf570a1d8S.jpg","sku":{"def":{"price":null,"promotionPrice":17921,"prices":{"pc":17921,"app":17921}}},"averageStarRate":null},"delivery":{"freeShipping":false,"shippingFee":null,"shippingDisplay":""}},{"item":{"itemId":1005003379569096,"title":"Parabrisas de vidrio delantero para motocicleta Yamaha, accesorios de protección contra el viento, deflectores, YSR50 YSR80, 1987-1992 YSR 80","sales":3,"image":"//ae01.alicdn.com/kf/H438b3e9274f04c569f0c0642d8868dae1.jpg","sku":{"def":{"price":null,"promotionPrice":14376,"prices":{"pc":14376,"app":14376}}},"averageStarRate":null},"delivery":{"freeShipping":false,"shippingFee":null,"shippingDisplay":""}},{"item":{"itemId":1005003563718995,"title":"Parabrisas para Kawasaki, protector de viento delantero, odómetro, Visor, cubierta del medidor, deflectores de pantalla, 2020-2021, Z900, Z650","sales":12,"image":"//ae01.alicdn.com/kf/Sf2e4279b3d024b459991cb4c5fb95342P.jpg","sku":{"def":{"price":null,"promotionPrice":12300,"prices":{"pc":12300,"app":12300}}},"averageStarRate":null},"delivery":{"freeShipping":false,"shippingFee":null,"shippingDisplay":""}},{"item":{"itemId":1005002152157065,"title":"Parabrisas de vidrio delantero para motocicleta, protector de viento para Suzuki BANDIT GSF1250S/GSF1250SA 07-17 GSF1200S/GSF1200SA 2006","sales":2,"image":"//ae01.alicdn.com/kf/H8b266339b8704f7d986e6b671ceb110a6.jpg","sku":{"def":{"price":null,"promotionPrice":12733,"prices":{"pc":12733,"app":12733}}},"averageStarRate":null},"delivery":{"freeShipping":false,"shippingFee":null,"shippingDisplay":""}}]}}]